%!PS-Adobe-3.0 EPSF-3.0
%%Creator: MATLAB, The MathWorks, Inc. Version 7.14.0.739 (R2012a). Operating System: Darwin 14.5.0 Darwin Kernel Version 14.5.0: Tue Sep  1 21:23:09 PDT 2015; root:xnu-2782.50.1~1/RELEASE_X86_64 x86_64.
%%Title: /Users/Chad/Documents/MATLAB/NucE 155 HW2 #4d.eps
%%CreationDate: 02/09/2016  03:45:01
%%DocumentNeededFonts: Helvetica
%%DocumentProcessColors: Cyan Magenta Yellow Black
%%LanguageLevel: 2
%%Pages: 1
%%BoundingBox:  -143    68   754   724
%%EndComments

%%BeginProlog
% MathWorks dictionary
/MathWorks 160 dict begin
% definition operators
/bdef {bind def} bind def
/ldef {load def} bind def
/xdef {exch def} bdef
/xstore {exch store} bdef
% operator abbreviations
/c  /clip ldef
/cc /concat ldef
/cp /closepath ldef
/gr /grestore ldef
/gs /gsave ldef
/mt /moveto ldef
/np /newpath ldef
/cm /currentmatrix ldef
/sm /setmatrix ldef
/rm /rmoveto ldef
/rl /rlineto ldef
/s {show newpath} bdef
/sc {setcmykcolor} bdef
/sr /setrgbcolor ldef
/sg /setgray ldef
/w /setlinewidth ldef
/j /setlinejoin ldef
/cap /setlinecap ldef
/rc {rectclip} bdef
/rf {rectfill} bdef
% page state control
/pgsv () def
/bpage {/pgsv save def} bdef
/epage {pgsv restore} bdef
/bplot /gsave ldef
/eplot {stroke grestore} bdef
% orientation switch
/portraitMode 0 def /landscapeMode 1 def /rotateMode 2 def
% coordinate system mappings
/dpi2point 0 def
% font control
/FontSize 0 def
/FMS {/FontSize xstore findfont [FontSize 0 0 FontSize neg 0 0]
  makefont setfont} bdef
/reencode {exch dup where {pop load} {pop StandardEncoding} ifelse
  exch dup 3 1 roll findfont dup length dict begin
  { 1 index /FID ne {def}{pop pop} ifelse } forall
  /Encoding exch def currentdict end definefont pop} bdef
/isroman {findfont /CharStrings get /Agrave known} bdef
/FMSR {3 1 roll 1 index dup isroman {reencode} {pop pop} ifelse
  exch FMS} bdef
/csm {1 dpi2point div -1 dpi2point div scale neg translate
 dup landscapeMode eq {pop -90 rotate}
  {rotateMode eq {90 rotate} if} ifelse} bdef
% line types: solid, dotted, dashed, dotdash
/SO { [] 0 setdash } bdef
/DO { [.5 dpi2point mul 4 dpi2point mul] 0 setdash } bdef
/DA { [6 dpi2point mul] 0 setdash } bdef
/DD { [.5 dpi2point mul 4 dpi2point mul 6 dpi2point mul 4
  dpi2point mul] 0 setdash } bdef
% macros for lines and objects
/L {lineto stroke} bdef
/MP {3 1 roll moveto 1 sub {rlineto} repeat} bdef
/AP {{rlineto} repeat} bdef
/PDlw -1 def
/W {/PDlw currentlinewidth def setlinewidth} def
/PP {closepath eofill} bdef
/DP {closepath stroke} bdef
/MR {4 -2 roll moveto dup  0 exch rlineto exch 0 rlineto
  neg 0 exch rlineto closepath} bdef
/FR {MR stroke} bdef
/PR {MR fill} bdef
/L1i {{currentfile picstr readhexstring pop} image} bdef
/tMatrix matrix def
/MakeOval {newpath tMatrix currentmatrix pop translate scale
0 0 1 0 360 arc tMatrix setmatrix} bdef
/FO {MakeOval stroke} bdef
/PO {MakeOval fill} bdef
/PD {currentlinewidth 2 div 0 360 arc fill
   PDlw -1 eq not {PDlw w /PDlw -1 def} if} def
/FA {newpath tMatrix currentmatrix pop translate scale
  0 0 1 5 -2 roll arc tMatrix setmatrix stroke} bdef
/PA {newpath tMatrix currentmatrix pop	translate 0 0 moveto scale
  0 0 1 5 -2 roll arc closepath tMatrix setmatrix fill} bdef
/FAn {newpath tMatrix currentmatrix pop translate scale
  0 0 1 5 -2 roll arcn tMatrix setmatrix stroke} bdef
/PAn {newpath tMatrix currentmatrix pop translate 0 0 moveto scale
  0 0 1 5 -2 roll arcn closepath tMatrix setmatrix fill} bdef
/vradius 0 def /hradius 0 def /lry 0 def
/lrx 0 def /uly 0 def /ulx 0 def /rad 0 def
/MRR {/vradius xdef /hradius xdef /lry xdef /lrx xdef /uly xdef
  /ulx xdef newpath tMatrix currentmatrix pop ulx hradius add uly
  vradius add translate hradius vradius scale 0 0 1 180 270 arc 
  tMatrix setmatrix lrx hradius sub uly vradius add translate
  hradius vradius scale 0 0 1 270 360 arc tMatrix setmatrix
  lrx hradius sub lry vradius sub translate hradius vradius scale
  0 0 1 0 90 arc tMatrix setmatrix ulx hradius add lry vradius sub
  translate hradius vradius scale 0 0 1 90 180 arc tMatrix setmatrix
  closepath} bdef
/FRR {MRR stroke } bdef
/PRR {MRR fill } bdef
/MlrRR {/lry xdef /lrx xdef /uly xdef /ulx xdef /rad lry uly sub 2 div def
  newpath tMatrix currentmatrix pop ulx rad add uly rad add translate
  rad rad scale 0 0 1 90 270 arc tMatrix setmatrix lrx rad sub lry rad
  sub translate rad rad scale 0 0 1 270 90 arc tMatrix setmatrix
  closepath} bdef
/FlrRR {MlrRR stroke } bdef
/PlrRR {MlrRR fill } bdef
/MtbRR {/lry xdef /lrx xdef /uly xdef /ulx xdef /rad lrx ulx sub 2 div def
  newpath tMatrix currentmatrix pop ulx rad add uly rad add translate
  rad rad scale 0 0 1 180 360 arc tMatrix setmatrix lrx rad sub lry rad
  sub translate rad rad scale 0 0 1 0 180 arc tMatrix setmatrix
  closepath} bdef
/FtbRR {MtbRR stroke } bdef
/PtbRR {MtbRR fill } bdef
/stri 6 array def /dtri 6 array def
/smat 6 array def /dmat 6 array def
/tmat1 6 array def /tmat2 6 array def /dif 3 array def
/asub {/ind2 exch def /ind1 exch def dup dup
  ind1 get exch ind2 get sub exch } bdef
/tri_to_matrix {
  2 0 asub 3 1 asub 4 0 asub 5 1 asub
  dup 0 get exch 1 get 7 -1 roll astore } bdef
/compute_transform {
  dmat dtri tri_to_matrix tmat1 invertmatrix 
  smat stri tri_to_matrix tmat2 concatmatrix } bdef
/ds {stri astore pop} bdef
/dt {dtri astore pop} bdef
/db {2 copy /cols xdef /rows xdef mul dup 3 mul string
  currentfile 
  3 index 0 eq {/ASCIIHexDecode filter}
  {/ASCII85Decode filter 3 index 2 eq {/RunLengthDecode filter} if }
  ifelse exch readstring pop
  dup 0 3 index getinterval /rbmap xdef
  dup 2 index dup getinterval /gbmap xdef
  1 index dup 2 mul exch getinterval /bbmap xdef pop pop}bdef
/it {gs np dtri aload pop moveto lineto lineto cp c
  cols rows 8 compute_transform 
  rbmap gbmap bbmap true 3 colorimage gr}bdef
/il {newpath moveto lineto stroke}bdef
currentdict end def
%%EndProlog

%%BeginSetup
MathWorks begin

0 cap

end
%%EndSetup

%%Page: 1 1
%%BeginPageSetup
%%PageBoundingBox:  -143    68   754   724
MathWorks begin
bpage
%%EndPageSetup

%%BeginObject: obj1
bplot

/dpi2point 12 def
portraitMode -1716 8688 csm

    0     0 10775  7863 rc
85 dict begin %Colortable dictionary
/c0 { 0.000000 0.000000 0.000000 sr} bdef
/c1 { 1.000000 1.000000 1.000000 sr} bdef
/c2 { 0.900000 0.000000 0.000000 sr} bdef
/c3 { 0.000000 0.820000 0.000000 sr} bdef
/c4 { 0.000000 0.000000 0.800000 sr} bdef
/c5 { 0.910000 0.820000 0.320000 sr} bdef
/c6 { 1.000000 0.260000 0.820000 sr} bdef
/c7 { 0.000000 0.820000 0.820000 sr} bdef
c0
1 j
1 sg
   0    0 10776 7864 rf
6 w
0 6408 8350 0 0 -6408 1401 6998 4 MP
PP
-8350 0 0 6408 8350 0 0 -6408 1401 6998 5 MP stroke
4 w
DO
SO
6 w
0 sg
1401 6998 mt 9751 6998 L
1401  590 mt 9751  590 L
1401 6998 mt 1401  590 L
9751 6998 mt 9751  590 L
1401 6998 mt 9751 6998 L
1401 6998 mt 1401  590 L
1401 6998 mt 1401 6956 L
1401  590 mt 1401  631 L
1401 6998 mt 1401 6914 L
1401  590 mt 1401  673 L
%%IncludeResource: font Helvetica
/Helvetica /ISOLatin1Encoding 120 FMSR

1289 7180 mt 
(10) s
%%IncludeResource: font Helvetica
/Helvetica /ISOLatin1Encoding 80 FMSR

1422 7106 mt 
(-4) s
2238 6998 mt 2238 6956 L
2238  590 mt 2238  631 L
2728 6998 mt 2728 6956 L
2728  590 mt 2728  631 L
3076 6998 mt 3076 6956 L
3076  590 mt 3076  631 L
3346 6998 mt 3346 6956 L
3346  590 mt 3346  631 L
3566 6998 mt 3566 6956 L
3566  590 mt 3566  631 L
3753 6998 mt 3753 6956 L
3753  590 mt 3753  631 L
3914 6998 mt 3914 6956 L
3914  590 mt 3914  631 L
4056 6998 mt 4056 6956 L
4056  590 mt 4056  631 L
4184 6998 mt 4184 6956 L
4184  590 mt 4184  631 L
4184 6998 mt 4184 6914 L
4184  590 mt 4184  673 L
%%IncludeResource: font Helvetica
/Helvetica /ISOLatin1Encoding 120 FMSR

4072 7180 mt 
(10) s
%%IncludeResource: font Helvetica
/Helvetica /ISOLatin1Encoding 80 FMSR

4205 7106 mt 
(-3) s
5022 6998 mt 5022 6956 L
5022  590 mt 5022  631 L
5512 6998 mt 5512 6956 L
5512  590 mt 5512  631 L
5860 6998 mt 5860 6956 L
5860  590 mt 5860  631 L
6129 6998 mt 6129 6956 L
6129  590 mt 6129  631 L
6350 6998 mt 6350 6956 L
6350  590 mt 6350  631 L
6536 6998 mt 6536 6956 L
6536  590 mt 6536  631 L
6697 6998 mt 6697 6956 L
6697  590 mt 6697  631 L
6840 6998 mt 6840 6956 L
6840  590 mt 6840  631 L
6967 6998 mt 6967 6956 L
6967  590 mt 6967  631 L
6967 6998 mt 6967 6914 L
6967  590 mt 6967  673 L
%%IncludeResource: font Helvetica
/Helvetica /ISOLatin1Encoding 120 FMSR

6855 7180 mt 
(10) s
%%IncludeResource: font Helvetica
/Helvetica /ISOLatin1Encoding 80 FMSR

6988 7106 mt 
(-2) s
7805 6998 mt 7805 6956 L
7805  590 mt 7805  631 L
8295 6998 mt 8295 6956 L
8295  590 mt 8295  631 L
8643 6998 mt 8643 6956 L
8643  590 mt 8643  631 L
8913 6998 mt 8913 6956 L
8913  590 mt 8913  631 L
9133 6998 mt 9133 6956 L
9133  590 mt 9133  631 L
9319 6998 mt 9319 6956 L
9319  590 mt 9319  631 L
9481 6998 mt 9481 6956 L
9481  590 mt 9481  631 L
9623 6998 mt 9623 6956 L
9623  590 mt 9623  631 L
9751 6998 mt 9751 6956 L
9751  590 mt 9751  631 L
9751 6998 mt 9751 6914 L
9751  590 mt 9751  673 L
%%IncludeResource: font Helvetica
/Helvetica /ISOLatin1Encoding 120 FMSR

9639 7180 mt 
(10) s
%%IncludeResource: font Helvetica
/Helvetica /ISOLatin1Encoding 80 FMSR

9772 7106 mt 
(-1) s
1401 6998 mt 1442 6998 L
9751 6998 mt 9709 6998 L
1401 6998 mt 1484 6998 L
9751 6998 mt 9667 6998 L
%%IncludeResource: font Helvetica
/Helvetica /ISOLatin1Encoding 120 FMSR

1142 7042 mt 
(10) s
%%IncludeResource: font Helvetica
/Helvetica /ISOLatin1Encoding 80 FMSR

1275 6968 mt 
(-6) s
1401 6676 mt 1442 6676 L
9751 6676 mt 9709 6676 L
1401 6488 mt 1442 6488 L
9751 6488 mt 9709 6488 L
1401 6354 mt 1442 6354 L
9751 6354 mt 9709 6354 L
1401 6251 mt 1442 6251 L
9751 6251 mt 9709 6251 L
1401 6166 mt 1442 6166 L
9751 6166 mt 9709 6166 L
1401 6095 mt 1442 6095 L
9751 6095 mt 9709 6095 L
1401 6033 mt 1442 6033 L
9751 6033 mt 9709 6033 L
1401 5978 mt 1442 5978 L
9751 5978 mt 9709 5978 L
1401 5930 mt 1442 5930 L
9751 5930 mt 9709 5930 L
1401 5930 mt 1484 5930 L
9751 5930 mt 9667 5930 L
%%IncludeResource: font Helvetica
/Helvetica /ISOLatin1Encoding 120 FMSR

1142 5974 mt 
(10) s
%%IncludeResource: font Helvetica
/Helvetica /ISOLatin1Encoding 80 FMSR

1275 5900 mt 
(-5) s
1401 5608 mt 1442 5608 L
9751 5608 mt 9709 5608 L
1401 5420 mt 1442 5420 L
9751 5420 mt 9709 5420 L
1401 5286 mt 1442 5286 L
9751 5286 mt 9709 5286 L
1401 5183 mt 1442 5183 L
9751 5183 mt 9709 5183 L
1401 5098 mt 1442 5098 L
9751 5098 mt 9709 5098 L
1401 5027 mt 1442 5027 L
9751 5027 mt 9709 5027 L
1401 4965 mt 1442 4965 L
9751 4965 mt 9709 4965 L
1401 4910 mt 1442 4910 L
9751 4910 mt 9709 4910 L
1401 4862 mt 1442 4862 L
9751 4862 mt 9709 4862 L
1401 4862 mt 1484 4862 L
9751 4862 mt 9667 4862 L
%%IncludeResource: font Helvetica
/Helvetica /ISOLatin1Encoding 120 FMSR

1142 4906 mt 
(10) s
%%IncludeResource: font Helvetica
/Helvetica /ISOLatin1Encoding 80 FMSR

1275 4832 mt 
(-4) s
1401 4540 mt 1442 4540 L
9751 4540 mt 9709 4540 L
1401 4352 mt 1442 4352 L
9751 4352 mt 9709 4352 L
1401 4218 mt 1442 4218 L
9751 4218 mt 9709 4218 L
1401 4115 mt 1442 4115 L
9751 4115 mt 9709 4115 L
1401 4030 mt 1442 4030 L
9751 4030 mt 9709 4030 L
1401 3959 mt 1442 3959 L
9751 3959 mt 9709 3959 L
1401 3897 mt 1442 3897 L
9751 3897 mt 9709 3897 L
1401 3842 mt 1442 3842 L
9751 3842 mt 9709 3842 L
1401 3794 mt 1442 3794 L
9751 3794 mt 9709 3794 L
1401 3794 mt 1484 3794 L
9751 3794 mt 9667 3794 L
%%IncludeResource: font Helvetica
/Helvetica /ISOLatin1Encoding 120 FMSR

1142 3838 mt 
(10) s
%%IncludeResource: font Helvetica
/Helvetica /ISOLatin1Encoding 80 FMSR

1275 3764 mt 
(-3) s
1401 3472 mt 1442 3472 L
9751 3472 mt 9709 3472 L
1401 3284 mt 1442 3284 L
9751 3284 mt 9709 3284 L
1401 3150 mt 1442 3150 L
9751 3150 mt 9709 3150 L
1401 3047 mt 1442 3047 L
9751 3047 mt 9709 3047 L
1401 2962 mt 1442 2962 L
9751 2962 mt 9709 2962 L
1401 2891 mt 1442 2891 L
9751 2891 mt 9709 2891 L
1401 2829 mt 1442 2829 L
9751 2829 mt 9709 2829 L
1401 2774 mt 1442 2774 L
9751 2774 mt 9709 2774 L
1401 2726 mt 1442 2726 L
9751 2726 mt 9709 2726 L
1401 2726 mt 1484 2726 L
9751 2726 mt 9667 2726 L
%%IncludeResource: font Helvetica
/Helvetica /ISOLatin1Encoding 120 FMSR

1142 2770 mt 
(10) s
%%IncludeResource: font Helvetica
/Helvetica /ISOLatin1Encoding 80 FMSR

1275 2696 mt 
(-2) s
1401 2404 mt 1442 2404 L
9751 2404 mt 9709 2404 L
1401 2216 mt 1442 2216 L
9751 2216 mt 9709 2216 L
1401 2082 mt 1442 2082 L
9751 2082 mt 9709 2082 L
1401 1979 mt 1442 1979 L
9751 1979 mt 9709 1979 L
1401 1894 mt 1442 1894 L
9751 1894 mt 9709 1894 L
1401 1823 mt 1442 1823 L
9751 1823 mt 9709 1823 L
1401 1761 mt 1442 1761 L
9751 1761 mt 9709 1761 L
1401 1706 mt 1442 1706 L
9751 1706 mt 9709 1706 L
1401 1658 mt 1442 1658 L
9751 1658 mt 9709 1658 L
1401 1658 mt 1484 1658 L
9751 1658 mt 9667 1658 L
%%IncludeResource: font Helvetica
/Helvetica /ISOLatin1Encoding 120 FMSR

1142 1702 mt 
(10) s
%%IncludeResource: font Helvetica
/Helvetica /ISOLatin1Encoding 80 FMSR

1275 1628 mt 
(-1) s
1401 1336 mt 1442 1336 L
9751 1336 mt 9709 1336 L
1401 1148 mt 1442 1148 L
9751 1148 mt 9709 1148 L
1401 1014 mt 1442 1014 L
9751 1014 mt 9709 1014 L
1401  911 mt 1442  911 L
9751  911 mt 9709  911 L
1401  826 mt 1442  826 L
9751  826 mt 9709  826 L
1401  755 mt 1442  755 L
9751  755 mt 9709  755 L
1401  693 mt 1442  693 L
9751  693 mt 9709  693 L
1401  638 mt 1442  638 L
9751  638 mt 9709  638 L
1401  590 mt 1442  590 L
9751  590 mt 9709  590 L
1401  590 mt 1484  590 L
9751  590 mt 9667  590 L
%%IncludeResource: font Helvetica
/Helvetica /ISOLatin1Encoding 120 FMSR

1142  634 mt 
(10) s
%%IncludeResource: font Helvetica
/Helvetica /ISOLatin1Encoding 80 FMSR

1275  560 mt 
(0) s
1401 6998 mt 9751 6998 L
1401  590 mt 9751  590 L
1401 6998 mt 1401  590 L
9751 6998 mt 9751  590 L
gs 1401 590 8351 6409 rc
/c8 { 0.000000 0.000000 1.000000 sr} bdef
c8
25 -17 25 -17 41 -28 42 -29 44 -30 46 -31 23 -17 48 -33 
25 -17 52 -35 26 -18 27 -19 28 -19 28 -20 29 -20 30 -20 
31 -21 31 -22 32 -22 33 -22 34 -24 35 -24 36 -24 38 -26 
38 -26 39 -27 41 -29 43 -29 43 -30 46 -31 23 -16 49 -33 
25 -17 51 -36 26 -18 27 -18 28 -19 28 -20 30 -20 29 -20 
31 -21 31 -22 32 -22 33 -22 34 -24 35 -24 36 -24 37 -26 
38 -26 40 -27 41 -28 42 -29 44 -30 45 -32 23 -16 48 -33 
25 -17 51 -35 27 -18 27 -19 27 -19 29 -19 29 -20 29 -20 
31 -21 31 -22 32 -22 33 -22 34 -23 34 -24 36 -25 37 -25 
38 -26 40 -27 40 -28 42 -29 44 -30 45 -31 23 -16 48 -33 
25 -17 51 -35 26 -18 27 -19 27 -18 28 -20 29 -19 30 -21 
30 -20 31 -22 32 -22 32 -22 34 -23 35 -24 35 -24 37 -25 
38 -26 39 -27 40 -28 42 -29 43 -29 44 -31 47 -32 48 -33 
51 -35 52 -36 55 -38 58 -39 60 -42 64 -43 67 -46 71 -49 
76 -52 80 -56 87 -59 93 -64 101 -69 109 -76 121 -83 135 -92 
151 -104 173 -119 202 -139 243 -166 303 -209 407 -279 617 -424 1327 -912 
1401 6685 129 MP stroke
gs 2975 1568 6012 4159 rc
24 W
0 sg
8913 1641 PD
24 W
8075 2167 PD
24 W
7237 2578 PD
24 W
6399 3130 PD
24 W
5561 3748 PD
24 W
4723 4380 PD
24 W
3885 5015 PD
24 W
3048 5653 PD
gr

0 sg
gr

%%IncludeResource: font Helvetica
/Helvetica /ISOLatin1Encoding 120 FMSR

5542 7323 mt 
(h) s
1060 3835 mt  -90 rotate
(E) s
90 rotate
5045  495 mt 
(NucE 155 HW2 #4d) s
1384 7041 mt 
( ) s
9735  632 mt 
( ) s
1 sg
0 334 2043 0 0 -334 7649 984 4 MP
PP
-2043 0 0 334 2043 0 0 -334 7649 984 5 MP stroke
4 w
DO
SO
6 w
0 sg
7649  984 mt 9692  984 L
7649  650 mt 9692  650 L
7649  984 mt 7649  650 L
9692  984 mt 9692  650 L
7649  984 mt 9692  984 L
7649  984 mt 7649  650 L
7649  984 mt 9692  984 L
7649  650 mt 9692  650 L
7649  984 mt 7649  650 L
9692  984 mt 9692  650 L
8095  785 mt 
(Least squares approximation) s
gs 7649 650 2044 335 rc
c8
343 0 7717 742 2 MP stroke
gr

c8
0 sg
8095  934 mt 
(data) s
gs 7649 650 2044 335 rc
gs 7815 818 147 147 rc
24 W
7888 891 PD
gr

gr


end %%Color Dict

eplot
%%EndObject

epage
end

showpage

%%Trailer
%%EOF
