%!PS-Adobe-3.0 EPSF-3.0
%%Creator: MATLAB, The MathWorks, Inc. Version 7.14.0.739 (R2012a). Operating System: Darwin 14.5.0 Darwin Kernel Version 14.5.0: Tue Sep  1 21:23:09 PDT 2015; root:xnu-2782.50.1~1/RELEASE_X86_64 x86_64.
%%Title: /Users/Chad/Documents/MATLAB/NucE 155 HW2 #1d.eps
%%CreationDate: 02/09/2016  03:43:23
%%DocumentNeededFonts: Helvetica
%%DocumentProcessColors: Cyan Magenta Yellow Black
%%LanguageLevel: 2
%%Pages: 1
%%BoundingBox:    26   186   585   606
%%EndComments

%%BeginProlog
% MathWorks dictionary
/MathWorks 160 dict begin
% definition operators
/bdef {bind def} bind def
/ldef {load def} bind def
/xdef {exch def} bdef
/xstore {exch store} bdef
% operator abbreviations
/c  /clip ldef
/cc /concat ldef
/cp /closepath ldef
/gr /grestore ldef
/gs /gsave ldef
/mt /moveto ldef
/np /newpath ldef
/cm /currentmatrix ldef
/sm /setmatrix ldef
/rm /rmoveto ldef
/rl /rlineto ldef
/s {show newpath} bdef
/sc {setcmykcolor} bdef
/sr /setrgbcolor ldef
/sg /setgray ldef
/w /setlinewidth ldef
/j /setlinejoin ldef
/cap /setlinecap ldef
/rc {rectclip} bdef
/rf {rectfill} bdef
% page state control
/pgsv () def
/bpage {/pgsv save def} bdef
/epage {pgsv restore} bdef
/bplot /gsave ldef
/eplot {stroke grestore} bdef
% orientation switch
/portraitMode 0 def /landscapeMode 1 def /rotateMode 2 def
% coordinate system mappings
/dpi2point 0 def
% font control
/FontSize 0 def
/FMS {/FontSize xstore findfont [FontSize 0 0 FontSize neg 0 0]
  makefont setfont} bdef
/reencode {exch dup where {pop load} {pop StandardEncoding} ifelse
  exch dup 3 1 roll findfont dup length dict begin
  { 1 index /FID ne {def}{pop pop} ifelse } forall
  /Encoding exch def currentdict end definefont pop} bdef
/isroman {findfont /CharStrings get /Agrave known} bdef
/FMSR {3 1 roll 1 index dup isroman {reencode} {pop pop} ifelse
  exch FMS} bdef
/csm {1 dpi2point div -1 dpi2point div scale neg translate
 dup landscapeMode eq {pop -90 rotate}
  {rotateMode eq {90 rotate} if} ifelse} bdef
% line types: solid, dotted, dashed, dotdash
/SO { [] 0 setdash } bdef
/DO { [.5 dpi2point mul 4 dpi2point mul] 0 setdash } bdef
/DA { [6 dpi2point mul] 0 setdash } bdef
/DD { [.5 dpi2point mul 4 dpi2point mul 6 dpi2point mul 4
  dpi2point mul] 0 setdash } bdef
% macros for lines and objects
/L {lineto stroke} bdef
/MP {3 1 roll moveto 1 sub {rlineto} repeat} bdef
/AP {{rlineto} repeat} bdef
/PDlw -1 def
/W {/PDlw currentlinewidth def setlinewidth} def
/PP {closepath eofill} bdef
/DP {closepath stroke} bdef
/MR {4 -2 roll moveto dup  0 exch rlineto exch 0 rlineto
  neg 0 exch rlineto closepath} bdef
/FR {MR stroke} bdef
/PR {MR fill} bdef
/L1i {{currentfile picstr readhexstring pop} image} bdef
/tMatrix matrix def
/MakeOval {newpath tMatrix currentmatrix pop translate scale
0 0 1 0 360 arc tMatrix setmatrix} bdef
/FO {MakeOval stroke} bdef
/PO {MakeOval fill} bdef
/PD {currentlinewidth 2 div 0 360 arc fill
   PDlw -1 eq not {PDlw w /PDlw -1 def} if} def
/FA {newpath tMatrix currentmatrix pop translate scale
  0 0 1 5 -2 roll arc tMatrix setmatrix stroke} bdef
/PA {newpath tMatrix currentmatrix pop	translate 0 0 moveto scale
  0 0 1 5 -2 roll arc closepath tMatrix setmatrix fill} bdef
/FAn {newpath tMatrix currentmatrix pop translate scale
  0 0 1 5 -2 roll arcn tMatrix setmatrix stroke} bdef
/PAn {newpath tMatrix currentmatrix pop translate 0 0 moveto scale
  0 0 1 5 -2 roll arcn closepath tMatrix setmatrix fill} bdef
/vradius 0 def /hradius 0 def /lry 0 def
/lrx 0 def /uly 0 def /ulx 0 def /rad 0 def
/MRR {/vradius xdef /hradius xdef /lry xdef /lrx xdef /uly xdef
  /ulx xdef newpath tMatrix currentmatrix pop ulx hradius add uly
  vradius add translate hradius vradius scale 0 0 1 180 270 arc 
  tMatrix setmatrix lrx hradius sub uly vradius add translate
  hradius vradius scale 0 0 1 270 360 arc tMatrix setmatrix
  lrx hradius sub lry vradius sub translate hradius vradius scale
  0 0 1 0 90 arc tMatrix setmatrix ulx hradius add lry vradius sub
  translate hradius vradius scale 0 0 1 90 180 arc tMatrix setmatrix
  closepath} bdef
/FRR {MRR stroke } bdef
/PRR {MRR fill } bdef
/MlrRR {/lry xdef /lrx xdef /uly xdef /ulx xdef /rad lry uly sub 2 div def
  newpath tMatrix currentmatrix pop ulx rad add uly rad add translate
  rad rad scale 0 0 1 90 270 arc tMatrix setmatrix lrx rad sub lry rad
  sub translate rad rad scale 0 0 1 270 90 arc tMatrix setmatrix
  closepath} bdef
/FlrRR {MlrRR stroke } bdef
/PlrRR {MlrRR fill } bdef
/MtbRR {/lry xdef /lrx xdef /uly xdef /ulx xdef /rad lrx ulx sub 2 div def
  newpath tMatrix currentmatrix pop ulx rad add uly rad add translate
  rad rad scale 0 0 1 180 360 arc tMatrix setmatrix lrx rad sub lry rad
  sub translate rad rad scale 0 0 1 0 180 arc tMatrix setmatrix
  closepath} bdef
/FtbRR {MtbRR stroke } bdef
/PtbRR {MtbRR fill } bdef
/stri 6 array def /dtri 6 array def
/smat 6 array def /dmat 6 array def
/tmat1 6 array def /tmat2 6 array def /dif 3 array def
/asub {/ind2 exch def /ind1 exch def dup dup
  ind1 get exch ind2 get sub exch } bdef
/tri_to_matrix {
  2 0 asub 3 1 asub 4 0 asub 5 1 asub
  dup 0 get exch 1 get 7 -1 roll astore } bdef
/compute_transform {
  dmat dtri tri_to_matrix tmat1 invertmatrix 
  smat stri tri_to_matrix tmat2 concatmatrix } bdef
/ds {stri astore pop} bdef
/dt {dtri astore pop} bdef
/db {2 copy /cols xdef /rows xdef mul dup 3 mul string
  currentfile 
  3 index 0 eq {/ASCIIHexDecode filter}
  {/ASCII85Decode filter 3 index 2 eq {/RunLengthDecode filter} if }
  ifelse exch readstring pop
  dup 0 3 index getinterval /rbmap xdef
  dup 2 index dup getinterval /gbmap xdef
  1 index dup 2 mul exch getinterval /bbmap xdef pop pop}bdef
/it {gs np dtri aload pop moveto lineto lineto cp c
  cols rows 8 compute_transform 
  rbmap gbmap bbmap true 3 colorimage gr}bdef
/il {newpath moveto lineto stroke}bdef
currentdict end def
%%EndProlog

%%BeginSetup
MathWorks begin

0 cap

end
%%EndSetup

%%Page: 1 1
%%BeginPageSetup
%%PageBoundingBox:    26   186   585   606
MathWorks begin
bpage
%%EndPageSetup

%%BeginObject: obj1
bplot

/dpi2point 12 def
portraitMode 0312 7272 csm

    0     0  6719  5033 rc
85 dict begin %Colortable dictionary
/c0 { 0.000000 0.000000 0.000000 sr} bdef
/c1 { 1.000000 1.000000 1.000000 sr} bdef
/c2 { 0.900000 0.000000 0.000000 sr} bdef
/c3 { 0.000000 0.820000 0.000000 sr} bdef
/c4 { 0.000000 0.000000 0.800000 sr} bdef
/c5 { 0.910000 0.820000 0.320000 sr} bdef
/c6 { 1.000000 0.260000 0.820000 sr} bdef
/c7 { 0.000000 0.820000 0.820000 sr} bdef
c0
1 j
1 sg
   0    0 6720 5034 rf
6 w
0 4102 5208 0 0 -4102 873 4479 4 MP
PP
-5208 0 0 4102 5208 0 0 -4102 873 4479 5 MP stroke
4 w
DO
SO
6 w
0 sg
 873 4479 mt 6081 4479 L
 873  377 mt 6081  377 L
 873 4479 mt  873  377 L
6081 4479 mt 6081  377 L
 873 4479 mt 6081 4479 L
 873 4479 mt  873  377 L
 873 4479 mt  873 4426 L
 873  377 mt  873  429 L
%%IncludeResource: font Helvetica
/Helvetica /ISOLatin1Encoding 120 FMSR

 720 4624 mt 
(-0.5) s
1393 4479 mt 1393 4426 L
1393  377 mt 1393  429 L
1360 4624 mt 
(0) s
1914 4479 mt 1914 4426 L
1914  377 mt 1914  429 L
1831 4624 mt 
(0.5) s
2435 4479 mt 2435 4426 L
2435  377 mt 2435  429 L
2402 4624 mt 
(1) s
2956 4479 mt 2956 4426 L
2956  377 mt 2956  429 L
2873 4624 mt 
(1.5) s
3477 4479 mt 3477 4426 L
3477  377 mt 3477  429 L
3444 4624 mt 
(2) s
3997 4479 mt 3997 4426 L
3997  377 mt 3997  429 L
3914 4624 mt 
(2.5) s
4518 4479 mt 4518 4426 L
4518  377 mt 4518  429 L
4485 4624 mt 
(3) s
5039 4479 mt 5039 4426 L
5039  377 mt 5039  429 L
4956 4624 mt 
(3.5) s
5560 4479 mt 5560 4426 L
5560  377 mt 5560  429 L
5527 4624 mt 
(4) s
6081 4479 mt 6081 4426 L
6081  377 mt 6081  429 L
5998 4624 mt 
(4.5) s
 873 4479 mt  925 4479 L
6081 4479 mt 6028 4479 L
 772 4523 mt 
(0) s
 873 3893 mt  925 3893 L
6081 3893 mt 6028 3893 L
 772 3937 mt 
(2) s
 873 3307 mt  925 3307 L
6081 3307 mt 6028 3307 L
 772 3351 mt 
(4) s
 873 2721 mt  925 2721 L
6081 2721 mt 6028 2721 L
 772 2765 mt 
(6) s
 873 2135 mt  925 2135 L
6081 2135 mt 6028 2135 L
 772 2179 mt 
(8) s
 873 1549 mt  925 1549 L
6081 1549 mt 6028 1549 L
 705 1593 mt 
(10) s
 873  963 mt  925  963 L
6081  963 mt 6028  963 L
 705 1007 mt 
(12) s
 873  377 mt  925  377 L
6081  377 mt 6028  377 L
 705  421 mt 
(14) s
 873 4479 mt 6081 4479 L
 873  377 mt 6081  377 L
 873 4479 mt  873  377 L
6081 4479 mt 6081  377 L
gs 873 377 5209 4103 rc
gr

24 W
1393 4186 PD
24 W
2435 4332 PD
24 W
3997 3770 PD
24 W
5560 1842 PD
gs 873 377 5209 4103 rc
/c8 { 0.000000 0.000000 1.000000 sr} bdef
c8
53 -50 53 -51 52 -52 53 -53 53 -53 52 -55 53 -55 52 -57 
53 -58 53 -58 52 -60 53 -61 52 -62 53 -63 53 -64 52 -65 
53 -66 52 -67 53 -67 53 -68 52 -69 53 -69 52 -69 53 -70 
53 -69 52 -70 53 -69 52 -69 53 -68 53 -68 52 -67 53 -66 
52 -65 53 -64 53 -62 52 -61 53 -60 53 -57 52 -56 53 -53 
52 -52 53 -49 53 -47 52 -45 53 -42 52 -40 53 -37 53 -35 
52 -32 53 -30 52 -27 53 -24 53 -22 52 -20 53 -17 52 -14 
53 -12 53 -10 52 -8 53 -5 52 -4 53 -1 53 0 52 1 
53 4 52 4 53 6 53 7 52 8 53 8 53 9 52 10 
53 10 52 10 53 11 53 10 52 10 53 10 52 9 53 9 
53 9 52 7 53 7 52 6 53 4 53 4 52 3 53 2 
52 0 53 0 53 -1 52 -3 53 -4 52 -4 53 -6 53 -7 
52 -7 53 -8 52 -9 873 4235 100 MP stroke
/c9 { 1.000000 0.000000 0.000000 sr} bdef
c9
53 -113 53 -112 52 -109 53 -108 53 -105 52 -102 53 -101 52 -98 
53 -97 53 -94 52 -92 53 -90 52 -88 53 -86 53 -84 52 -82 
53 -80 52 -78 53 -76 53 -74 52 -72 53 -70 52 -68 53 -67 
53 -65 52 -63 53 -61 52 -59 53 -58 53 -55 52 -55 53 -52 
52 -51 53 -49 53 -47 52 -46 53 -44 53 -42 52 -41 53 -40 
52 -37 53 -37 53 -35 52 -33 53 -32 52 -30 53 -29 53 -28 
52 -26 53 -25 52 -23 53 -22 53 -21 52 -19 53 -19 52 -16 
53 -16 53 -15 52 -13 53 -12 52 -11 53 -9 53 -9 52 -7 
53 -7 52 -5 53 -4 53 -3 52 -3 53 -1 53 0 52 1 
53 2 52 3 53 3 53 5 52 5 53 6 52 8 53 7 
53 9 52 10 53 10 52 11 53 12 53 12 52 14 53 13 
52 15 53 15 53 16 52 16 53 17 52 18 53 18 53 19 
52 19 53 19 52 21 873 4009 100 MP stroke
gr

c9
0 sg
3446 4767 mt 
(x) s
 623 2459 mt  -90 rotate
(y) s
90 rotate
2929  282 mt 
(NucE 155 HW 2 #1d) s
 856 4522 mt 
( ) s
6065  419 mt 
( ) s
1 sg
0 480 1784 0 0 -480 4237 917 4 MP
PP
-1784 0 0 480 1784 0 0 -480 4237 917 5 MP stroke
4 w
DO
SO
6 w
0 sg
4237  917 mt 6021  917 L
4237  437 mt 6021  437 L
4237  917 mt 4237  437 L
6021  917 mt 6021  437 L
4237  917 mt 6021  917 L
4237  917 mt 4237  437 L
4237  917 mt 6021  917 L
4237  437 mt 6021  437 L
4237  917 mt 4237  437 L
6021  917 mt 6021  437 L
4684  571 mt 
(Points) s
gs 4237 437 1785 481 rc
gs 4404 455 147 147 rc
24 W
4477 528 PD
gr

gr

4684  720 mt 
(Actual Function) s
gs 4237 437 1785 481 rc
c8
344 0 4305 677 2 MP stroke
gr

c8
0 sg
4684  868 mt 
(Interpolating Polynomial) s
gs 4237 437 1785 481 rc
c9
344 0 4305 825 2 MP stroke
gr

c9

end %%Color Dict

eplot
%%EndObject

epage
end

showpage

%%Trailer
%%EOF
