%!PS-Adobe-3.0 EPSF-3.0
%%Creator: MATLAB, The MathWorks, Inc. Version 7.14.0.739 (R2012a). Operating System: Darwin 14.5.0 Darwin Kernel Version 14.5.0: Tue Sep  1 21:23:09 PDT 2015; root:xnu-2782.50.1~1/RELEASE_X86_64 x86_64.
%%Title: /Users/Chad/Documents/MATLAB/NucE 155 HW2 #3a.eps
%%CreationDate: 02/09/2016  03:44:09
%%DocumentNeededFonts: Helvetica
%%DocumentProcessColors: Cyan Magenta Yellow Black
%%LanguageLevel: 2
%%Pages: 1
%%BoundingBox:  -143    68   754   724
%%EndComments

%%BeginProlog
% MathWorks dictionary
/MathWorks 160 dict begin
% definition operators
/bdef {bind def} bind def
/ldef {load def} bind def
/xdef {exch def} bdef
/xstore {exch store} bdef
% operator abbreviations
/c  /clip ldef
/cc /concat ldef
/cp /closepath ldef
/gr /grestore ldef
/gs /gsave ldef
/mt /moveto ldef
/np /newpath ldef
/cm /currentmatrix ldef
/sm /setmatrix ldef
/rm /rmoveto ldef
/rl /rlineto ldef
/s {show newpath} bdef
/sc {setcmykcolor} bdef
/sr /setrgbcolor ldef
/sg /setgray ldef
/w /setlinewidth ldef
/j /setlinejoin ldef
/cap /setlinecap ldef
/rc {rectclip} bdef
/rf {rectfill} bdef
% page state control
/pgsv () def
/bpage {/pgsv save def} bdef
/epage {pgsv restore} bdef
/bplot /gsave ldef
/eplot {stroke grestore} bdef
% orientation switch
/portraitMode 0 def /landscapeMode 1 def /rotateMode 2 def
% coordinate system mappings
/dpi2point 0 def
% font control
/FontSize 0 def
/FMS {/FontSize xstore findfont [FontSize 0 0 FontSize neg 0 0]
  makefont setfont} bdef
/reencode {exch dup where {pop load} {pop StandardEncoding} ifelse
  exch dup 3 1 roll findfont dup length dict begin
  { 1 index /FID ne {def}{pop pop} ifelse } forall
  /Encoding exch def currentdict end definefont pop} bdef
/isroman {findfont /CharStrings get /Agrave known} bdef
/FMSR {3 1 roll 1 index dup isroman {reencode} {pop pop} ifelse
  exch FMS} bdef
/csm {1 dpi2point div -1 dpi2point div scale neg translate
 dup landscapeMode eq {pop -90 rotate}
  {rotateMode eq {90 rotate} if} ifelse} bdef
% line types: solid, dotted, dashed, dotdash
/SO { [] 0 setdash } bdef
/DO { [.5 dpi2point mul 4 dpi2point mul] 0 setdash } bdef
/DA { [6 dpi2point mul] 0 setdash } bdef
/DD { [.5 dpi2point mul 4 dpi2point mul 6 dpi2point mul 4
  dpi2point mul] 0 setdash } bdef
% macros for lines and objects
/L {lineto stroke} bdef
/MP {3 1 roll moveto 1 sub {rlineto} repeat} bdef
/AP {{rlineto} repeat} bdef
/PDlw -1 def
/W {/PDlw currentlinewidth def setlinewidth} def
/PP {closepath eofill} bdef
/DP {closepath stroke} bdef
/MR {4 -2 roll moveto dup  0 exch rlineto exch 0 rlineto
  neg 0 exch rlineto closepath} bdef
/FR {MR stroke} bdef
/PR {MR fill} bdef
/L1i {{currentfile picstr readhexstring pop} image} bdef
/tMatrix matrix def
/MakeOval {newpath tMatrix currentmatrix pop translate scale
0 0 1 0 360 arc tMatrix setmatrix} bdef
/FO {MakeOval stroke} bdef
/PO {MakeOval fill} bdef
/PD {currentlinewidth 2 div 0 360 arc fill
   PDlw -1 eq not {PDlw w /PDlw -1 def} if} def
/FA {newpath tMatrix currentmatrix pop translate scale
  0 0 1 5 -2 roll arc tMatrix setmatrix stroke} bdef
/PA {newpath tMatrix currentmatrix pop	translate 0 0 moveto scale
  0 0 1 5 -2 roll arc closepath tMatrix setmatrix fill} bdef
/FAn {newpath tMatrix currentmatrix pop translate scale
  0 0 1 5 -2 roll arcn tMatrix setmatrix stroke} bdef
/PAn {newpath tMatrix currentmatrix pop translate 0 0 moveto scale
  0 0 1 5 -2 roll arcn closepath tMatrix setmatrix fill} bdef
/vradius 0 def /hradius 0 def /lry 0 def
/lrx 0 def /uly 0 def /ulx 0 def /rad 0 def
/MRR {/vradius xdef /hradius xdef /lry xdef /lrx xdef /uly xdef
  /ulx xdef newpath tMatrix currentmatrix pop ulx hradius add uly
  vradius add translate hradius vradius scale 0 0 1 180 270 arc 
  tMatrix setmatrix lrx hradius sub uly vradius add translate
  hradius vradius scale 0 0 1 270 360 arc tMatrix setmatrix
  lrx hradius sub lry vradius sub translate hradius vradius scale
  0 0 1 0 90 arc tMatrix setmatrix ulx hradius add lry vradius sub
  translate hradius vradius scale 0 0 1 90 180 arc tMatrix setmatrix
  closepath} bdef
/FRR {MRR stroke } bdef
/PRR {MRR fill } bdef
/MlrRR {/lry xdef /lrx xdef /uly xdef /ulx xdef /rad lry uly sub 2 div def
  newpath tMatrix currentmatrix pop ulx rad add uly rad add translate
  rad rad scale 0 0 1 90 270 arc tMatrix setmatrix lrx rad sub lry rad
  sub translate rad rad scale 0 0 1 270 90 arc tMatrix setmatrix
  closepath} bdef
/FlrRR {MlrRR stroke } bdef
/PlrRR {MlrRR fill } bdef
/MtbRR {/lry xdef /lrx xdef /uly xdef /ulx xdef /rad lrx ulx sub 2 div def
  newpath tMatrix currentmatrix pop ulx rad add uly rad add translate
  rad rad scale 0 0 1 180 360 arc tMatrix setmatrix lrx rad sub lry rad
  sub translate rad rad scale 0 0 1 0 180 arc tMatrix setmatrix
  closepath} bdef
/FtbRR {MtbRR stroke } bdef
/PtbRR {MtbRR fill } bdef
/stri 6 array def /dtri 6 array def
/smat 6 array def /dmat 6 array def
/tmat1 6 array def /tmat2 6 array def /dif 3 array def
/asub {/ind2 exch def /ind1 exch def dup dup
  ind1 get exch ind2 get sub exch } bdef
/tri_to_matrix {
  2 0 asub 3 1 asub 4 0 asub 5 1 asub
  dup 0 get exch 1 get 7 -1 roll astore } bdef
/compute_transform {
  dmat dtri tri_to_matrix tmat1 invertmatrix 
  smat stri tri_to_matrix tmat2 concatmatrix } bdef
/ds {stri astore pop} bdef
/dt {dtri astore pop} bdef
/db {2 copy /cols xdef /rows xdef mul dup 3 mul string
  currentfile 
  3 index 0 eq {/ASCIIHexDecode filter}
  {/ASCII85Decode filter 3 index 2 eq {/RunLengthDecode filter} if }
  ifelse exch readstring pop
  dup 0 3 index getinterval /rbmap xdef
  dup 2 index dup getinterval /gbmap xdef
  1 index dup 2 mul exch getinterval /bbmap xdef pop pop}bdef
/it {gs np dtri aload pop moveto lineto lineto cp c
  cols rows 8 compute_transform 
  rbmap gbmap bbmap true 3 colorimage gr}bdef
/il {newpath moveto lineto stroke}bdef
currentdict end def
%%EndProlog

%%BeginSetup
MathWorks begin

0 cap

end
%%EndSetup

%%Page: 1 1
%%BeginPageSetup
%%PageBoundingBox:  -143    68   754   724
MathWorks begin
bpage
%%EndPageSetup

%%BeginObject: obj1
bplot

/dpi2point 12 def
portraitMode -1716 8688 csm

    0     0 10775  7863 rc
85 dict begin %Colortable dictionary
/c0 { 0.000000 0.000000 0.000000 sr} bdef
/c1 { 1.000000 1.000000 1.000000 sr} bdef
/c2 { 0.900000 0.000000 0.000000 sr} bdef
/c3 { 0.000000 0.820000 0.000000 sr} bdef
/c4 { 0.000000 0.000000 0.800000 sr} bdef
/c5 { 0.910000 0.820000 0.320000 sr} bdef
/c6 { 1.000000 0.260000 0.820000 sr} bdef
/c7 { 0.000000 0.820000 0.820000 sr} bdef
c0
1 j
1 sg
   0    0 10776 7864 rf
6 w
0 1696 8350 0 0 -1696 1401 4642 4 MP
PP
-8350 0 0 1696 8350 0 0 -1696 1401 4642 5 MP stroke
4 w
DO
SO
6 w
0 sg
1401 4642 mt 9751 4642 L
1401 2946 mt 9751 2946 L
1401 4642 mt 1401 2946 L
9751 4642 mt 9751 2946 L
1401 4642 mt 9751 4642 L
1401 4642 mt 1401 2946 L
1780 4642 mt 1780 4558 L
1780 2946 mt 1780 3029 L
%%IncludeResource: font Helvetica
/Helvetica /ISOLatin1Encoding 120 FMSR

1747 4787 mt 
(1) s
2539 4642 mt 2539 4558 L
2539 2946 mt 2539 3029 L
2456 4787 mt 
(1.5) s
3298 4642 mt 3298 4558 L
3298 2946 mt 3298 3029 L
3265 4787 mt 
(2) s
4057 4642 mt 4057 4558 L
4057 2946 mt 4057 3029 L
3974 4787 mt 
(2.5) s
4816 4642 mt 4816 4558 L
4816 2946 mt 4816 3029 L
4783 4787 mt 
(3) s
5576 4642 mt 5576 4558 L
5576 2946 mt 5576 3029 L
5493 4787 mt 
(3.5) s
6335 4642 mt 6335 4558 L
6335 2946 mt 6335 3029 L
6302 4787 mt 
(4) s
7094 4642 mt 7094 4558 L
7094 2946 mt 7094 3029 L
7011 4787 mt 
(4.5) s
7853 4642 mt 7853 4558 L
7853 2946 mt 7853 3029 L
7820 4787 mt 
(5) s
8612 4642 mt 8612 4558 L
8612 2946 mt 8612 3029 L
8529 4787 mt 
(5.5) s
9371 4642 mt 9371 4558 L
9371 2946 mt 9371 3029 L
9338 4787 mt 
(6) s
1401 4642 mt 1484 4642 L
9751 4642 mt 9667 4642 L
1230 4686 mt 
(-5) s
1401 4302 mt 1484 4302 L
9751 4302 mt 9667 4302 L
1300 4346 mt 
(0) s
1401 3963 mt 1484 3963 L
9751 3963 mt 9667 3963 L
1300 4007 mt 
(5) s
1401 3624 mt 1484 3624 L
9751 3624 mt 9667 3624 L
1233 3668 mt 
(10) s
1401 3285 mt 1484 3285 L
9751 3285 mt 9667 3285 L
1233 3329 mt 
(15) s
1401 2946 mt 1484 2946 L
9751 2946 mt 9667 2946 L
1233 2990 mt 
(20) s
1401 4642 mt 9751 4642 L
1401 2946 mt 9751 2946 L
1401 4642 mt 1401 2946 L
9751 4642 mt 9751 2946 L
gs 1401 2946 8351 1697 rc
gr

24 W
1780 4234 PD
24 W
3298 4099 PD
24 W
4816 3285 PD
24 W
6335 3488 PD
24 W
7853 3827 PD
24 W
9371 4099 PD
gs 1401 2946 8351 1697 rc
gr

5545 4930 mt 
(x) s
1148 3882 mt  -90 rotate
(f\(x\)) s
90 rotate
4667 2851 mt 
(Lagrange Polynomial Interpolation) s
1384 4685 mt 
( ) s
9735 2988 mt 
( ) s
gs 1401 2946 8351 1697 rc
/c8 { 0.000000 0.000000 1.000000 sr} bdef
c8
26 32 25 30 33 39 33 37 34 35 33 33 34 30 33 29 
33 27 34 26 33 24 34 22 33 21 33 19 34 19 33 16 
34 16 33 15 33 13 34 12 33 12 34 10 33 10 67 17 
33 7 67 13 67 10 67 9 66 6 67 6 67 5 267 12 
134 6 133 7 67 4 134 11 67 7 66 8 67 9 67 9 
67 11 67 12 66 12 67 14 67 14 67 16 133 34 67 17 
134 38 133 40 268 83 133 41 134 40 133 37 67 18 67 16 
67 16 67 14 66 13 67 12 67 10 67 8 67 7 66 5 
67 3 67 1 67 -1 67 -4 66 -5 67 -8 67 -10 67 -13 
67 -15 66 -17 67 -20 34 -11 66 -24 34 -12 67 -27 33 -15 
67 -30 33 -17 67 -34 67 -36 67 -38 66 -40 67 -43 67 -43 
67 -46 67 -46 66 -48 268 -199 133 -99 67 -49 67 -48 67 -46 
66 -44 34 -22 67 -40 33 -20 33 -18 34 -17 33 -17 34 -16 
33 -14 33 -13 34 -12 33 -11 34 -10 33 -8 33 -6 34 -5 
33 -3 34 -1 33 0 33 2 34 5 33 6 34 9 16 5 
34 12 16 8 34 15 17 9 33 20 17 11 16 12 17 12 
17 13 16 14 17 15 17 15 17 16 16 17 17 18 17 19 
16 19 17 20 17 21 16 22 17 23 17 24 16 25 17 26 
17 26 17 28 16 28 17 30 17 31 16 31 17 33 17 34 
16 35 17 36 17 37 17 38 16 40 17 40 17 42 16 43 
17 44 17 46 16 46 1401 3455 164 MP stroke
gr

c8
1 sg
0 1696 8350 0 0 -1696 1401 2039 4 MP
PP
-8350 0 0 1696 8350 0 0 -1696 1401 2039 5 MP stroke
4 w
DO
SO
6 w
0 sg
1401 2039 mt 9751 2039 L
1401  343 mt 9751  343 L
1401 2039 mt 1401  343 L
9751 2039 mt 9751  343 L
1401 2039 mt 9751 2039 L
1401 2039 mt 1401  343 L
1780 2039 mt 1780 1955 L
1780  343 mt 1780  426 L
1747 2184 mt 
(1) s
2539 2039 mt 2539 1955 L
2539  343 mt 2539  426 L
2456 2184 mt 
(1.5) s
3298 2039 mt 3298 1955 L
3298  343 mt 3298  426 L
3265 2184 mt 
(2) s
4057 2039 mt 4057 1955 L
4057  343 mt 4057  426 L
3974 2184 mt 
(2.5) s
4816 2039 mt 4816 1955 L
4816  343 mt 4816  426 L
4783 2184 mt 
(3) s
5576 2039 mt 5576 1955 L
5576  343 mt 5576  426 L
5493 2184 mt 
(3.5) s
6335 2039 mt 6335 1955 L
6335  343 mt 6335  426 L
6302 2184 mt 
(4) s
7094 2039 mt 7094 1955 L
7094  343 mt 7094  426 L
7011 2184 mt 
(4.5) s
7853 2039 mt 7853 1955 L
7853  343 mt 7853  426 L
7820 2184 mt 
(5) s
8612 2039 mt 8612 1955 L
8612  343 mt 8612  426 L
8529 2184 mt 
(5.5) s
9371 2039 mt 9371 1955 L
9371  343 mt 9371  426 L
9338 2184 mt 
(6) s
1401 2039 mt 1484 2039 L
9751 2039 mt 9667 2039 L
1300 2083 mt 
(0) s
1401 1473 mt 1484 1473 L
9751 1473 mt 9667 1473 L
1300 1517 mt 
(5) s
1401  908 mt 1484  908 L
9751  908 mt 9667  908 L
1233  952 mt 
(10) s
1401  343 mt 1484  343 L
9751  343 mt 9667  343 L
1233  387 mt 
(15) s
1401 2039 mt 9751 2039 L
1401  343 mt 9751  343 L
1401 2039 mt 1401  343 L
9751 2039 mt 9751  343 L
gs 1401 343 8351 1697 rc
c8
744 221 389 116 194 58 97 29 49 14 24 8 12 3 6 2 
3 1 7853 1247 10 MP stroke
gr

c8
0 sg
5545 2327 mt 
(x) s
1151 1279 mt  -90 rotate
(f\(x\)) s
90 rotate
5028  110 mt 
(NucE 130 HW 2 #3a) s
4774  248 mt 
(Piecewise Linear Interpolation) s
gs 1401 343 8351 1697 rc
gr

24 W
1780 1925 PD
24 W
3298 1699 PD
24 W
4816 343 PD
24 W
6335 682 PD
24 W
7853 1247 PD
24 W
9371 1699 PD
gs 1401 343 8351 1697 rc
c8
744 -111 388 -58 195 -29 97 -14 48 -8 25 -3 12 -2 6 -1 
3 0 1780 1925 10 MP stroke
743 -664 389 -348 194 -173 98 -87 48 -44 25 -21 12 -11 6 -6 
3 -2 3298 1699 10 MP stroke
744 167 389 86 194 44 97 21 49 11 24 6 12 2 7 2 
3 0 4816 343 10 MP stroke
744 277 389 145 194 72 97 36 49 18 24 9 12 5 6 2 
3 1 6335 682 10 MP stroke
744 221 389 116 194 58 97 29 49 14 24 8 12 3 6 2 
3 1 7853 1247 10 MP stroke
gr

c8
0 sg
1384 2082 mt 
( ) s
9735  385 mt 
( ) s
1 sg
0 1696 8350 0 0 -1696 1401 6998 4 MP
PP
-8350 0 0 1696 8350 0 0 -1696 1401 6998 5 MP stroke
4 w
DO
SO
6 w
0 sg
1401 6998 mt 9751 6998 L
1401 5302 mt 9751 5302 L
1401 6998 mt 1401 5302 L
9751 6998 mt 9751 5302 L
1401 6998 mt 9751 6998 L
1401 6998 mt 1401 5302 L
1780 6998 mt 1780 6914 L
1780 5302 mt 1780 5385 L
1747 7143 mt 
(1) s
2539 6998 mt 2539 6914 L
2539 5302 mt 2539 5385 L
2456 7143 mt 
(1.5) s
3298 6998 mt 3298 6914 L
3298 5302 mt 3298 5385 L
3265 7143 mt 
(2) s
4057 6998 mt 4057 6914 L
4057 5302 mt 4057 5385 L
3974 7143 mt 
(2.5) s
4816 6998 mt 4816 6914 L
4816 5302 mt 4816 5385 L
4783 7143 mt 
(3) s
5576 6998 mt 5576 6914 L
5576 5302 mt 5576 5385 L
5493 7143 mt 
(3.5) s
6335 6998 mt 6335 6914 L
6335 5302 mt 6335 5385 L
6302 7143 mt 
(4) s
7094 6998 mt 7094 6914 L
7094 5302 mt 7094 5385 L
7011 7143 mt 
(4.5) s
7853 6998 mt 7853 6914 L
7853 5302 mt 7853 5385 L
7820 7143 mt 
(5) s
8612 6998 mt 8612 6914 L
8612 5302 mt 8612 5385 L
8529 7143 mt 
(5.5) s
9371 6998 mt 9371 6914 L
9371 5302 mt 9371 5385 L
9338 7143 mt 
(6) s
1401 6998 mt 1484 6998 L
9751 6998 mt 9667 6998 L
1230 7042 mt 
(-5) s
1401 6658 mt 1484 6658 L
9751 6658 mt 9667 6658 L
1300 6702 mt 
(0) s
1401 6319 mt 1484 6319 L
9751 6319 mt 9667 6319 L
1300 6363 mt 
(5) s
1401 5980 mt 1484 5980 L
9751 5980 mt 9667 5980 L
1233 6024 mt 
(10) s
1401 5641 mt 1484 5641 L
9751 5641 mt 9667 5641 L
1233 5685 mt 
(15) s
1401 5302 mt 1484 5302 L
9751 5302 mt 9667 5302 L
1233 5346 mt 
(20) s
1401 6998 mt 9751 6998 L
1401 5302 mt 9751 5302 L
1401 6998 mt 1401 5302 L
9751 6998 mt 9751 5302 L
gs 1401 5302 8351 1697 rc
gr

24 W
1780 6590 PD
24 W
3298 6455 PD
24 W
4816 5641 PD
24 W
6335 5844 PD
24 W
7853 6183 PD
24 W
9371 6455 PD
gs 1401 5302 8351 1697 rc
gr

5545 7286 mt 
(x) s
1148 6238 mt  -90 rotate
(f\(x\)) s
90 rotate
5060 5207 mt 
(Spline Interpolation) s
1384 7041 mt 
( ) s
9735 5344 mt 
( ) s
gs 1401 5302 8351 1697 rc
c8
-27 -33 -28 -33 -28 -31 -28 -30 -28 -29 -28 -28 -28 -26 -28 -25 
-28 -25 -28 -23 -28 -22 -28 -20 -28 -20 -27 -19 -28 -18 -28 -16 
-28 -16 -28 -15 -28 -13 -28 -13 -28 -12 -28 -10 -28 -10 -28 -9 
-28 -8 -28 -8 -28 -6 -27 -5 -28 -5 -28 -4 -28 -3 -28 -2 
-28 -2 -28 0 -28 0 -28 1 -28 1 -28 2 -28 3 -28 4 
-27 4 -28 5 -28 5 -28 6 -28 7 -28 7 -28 8 -28 8 
-28 9 -28 9 -28 10 -28 11 -28 10 -28 12 -27 11 -28 12 
-28 13 -28 13 -28 13 -28 14 -28 14 -28 14 -28 15 -28 15 
-28 15 -28 16 -28 16 -27 16 -28 16 -28 17 -28 16 -28 17 
-28 17 -28 18 -28 17 -28 18 -28 17 -28 18 -28 18 -28 17 
-28 18 -27 18 -28 18 -28 18 -28 18 -28 18 -28 18 -28 17 
-28 18 -28 18 -28 17 -28 18 -28 17 -28 17 -28 17 -27 17 
-28 16 -28 17 -28 16 -28 16 -28 15 -28 16 -28 15 -28 15 
-28 14 -28 14 -28 14 -28 13 -27 14 -28 12 -28 12 -28 12 
-28 12 -28 11 -28 10 -28 10 -28 10 -28 9 -28 8 -28 8 
-28 7 -28 7 -27 6 -28 6 -28 5 -28 5 -28 4 -28 3 
-28 3 -28 2 -28 2 -28 2 -28 1 -28 0 -28 0 -27 0 
-28 -1 -28 -1 -28 -2 -28 -2 -28 -3 -28 -2 -28 -4 -28 -3 
-28 -4 -28 -4 -28 -4 -28 -5 -28 -5 -27 -5 -28 -6 -28 -6 
-28 -6 -28 -6 -28 -6 -28 -7 -28 -6 -28 -7 -28 -7 -28 -8 
-28 -7 -28 -8 -28 -7 -27 -8 -28 -8 -28 -7 -28 -8 -28 -8 
-28 -8 -28 -8 -28 -8 -28 -8 -28 -8 -28 -8 -28 -8 -28 -8 
-27 -8 -28 -7 -28 -8 -28 -8 -28 -7 -28 -8 -28 -7 -28 -7 
-28 -7 -28 -8 -28 -7 -28 -7 -28 -7 -28 -7 -27 -7 -28 -6 
-28 -7 -28 -7 -28 -6 -28 -7 -28 -6 -28 -7 -28 -6 -28 -7 
-28 -6 -28 -6 -28 -6 -27 -6 -28 -7 -28 -6 -28 -6 -28 -6 
-28 -5 -28 -6 -28 -6 -28 -6 -28 -6 -28 -5 -28 -6 -28 -6 
-28 -5 -27 -6 -28 -5 -28 -6 -28 -5 -28 -6 -28 -5 -28 -5 
-28 -6 -28 -5 -28 -5 -28 -6 -28 -5 -28 -5 -28 -5 -27 -5 
-28 -5 -28 -6 -28 -5 -28 -5 -28 -5 -28 -5 -28 -5 -28 -5 
-28 -5 -28 -5 -28 -5 -28 -5 -27 -5 -28 -5 -28 -4 -28 -5 
-28 -5 -28 -5 -28 -5 -28 -5 -28 -5 -28 -5 -28 -5 -28 -4 
-28 -5 -28 -5 -27 -5 -28 -5 -28 -5 -28 -5 -28 -5 -28 -4 
-28 -5 -28 -5 -28 -5 -28 -5 -28 -5 -28 -5 -28 -5 -27 -5 
-28 -5 -28 -5 -28 -5 -28 -5 -28 -5 -28 -5 -28 -5 -28 -6 
-28 -5 -28 -5 -28 -5 -28 -5 -28 -6 -27 -5 -28 -5 -28 -6 
-28 -5 -28 -5 -28 -6 -28 -5 -28 -6 -28 -5 -28 -6 -28 -5 
-28 -6 -28 -6 -28 -6 9751 6530 300 MP stroke
gr

c8

end %%Color Dict

eplot
%%EndObject

epage
end

showpage

%%Trailer
%%EOF
